…
## Cross validation using `modelr`

``` r
cv_df = 
  crossv_mc(nonlin_df, 100)
```

what is happening here ?

``` r
cv_df %>%  pull(train) %>% .[[1]] %>% as_tibble()
```

    ## # A tibble: 79 x 3
    ##       id      x      y
    ##    <int>  <dbl>  <dbl>
    ##  1     1 0.995  -3.85 
    ##  2     3 0.711  -0.629
    ##  3     4 0.409   1.21 
    ##  4     6 0.973  -3.83 
    ##  5     7 0.770  -1.13 
    ##  6     8 0.553   0.511
    ##  7     9 0.694  -0.973
    ##  8    11 0.731  -0.927
    ##  9    12 0.0958  0.389
    ## 10    13 0.127   0.771
    ## # … with 69 more rows

``` r
cv_df %>%  pull(test) %>% .[[1]] %>% as_tibble()
```

    ## # A tibble: 21 x 3
    ##       id      x      y
    ##    <int>  <dbl>  <dbl>
    ##  1     2 0.887  -2.45 
    ##  2     5 0.135   1.25 
    ##  3    10 0.0756  0.619
    ##  4    18 0.555  -0.605
    ##  5    24 0.149   0.583
    ##  6    25 0.209   1.10 
    ##  7    29 0.0438  0.489
    ##  8    31 1.00   -3.98 
    ##  9    32 0.104   0.291
    ## 10    33 0.220   0.729
    ## # … with 11 more rows
…
